ScPoEconometrics
…
---

.right-wide[
*Example:* Which A graded poll with at least 2,000 people had Trump win at least 45% of the vote?
]

.right-wide[

```r
polls_us_election_2016
```

```
## # A tibble: 4,208 x 15
##    state      startdate  enddate    pollster         grade samplesize population
##    <fct>      <date>     <date>     <fct>            <fct>      <int> <chr>     
##  1 U.S.       2016-11-03 2016-11-06 ABC News/Washin~ A+          2220 lv        
##  2 U.S.       2016-11-01 2016-11-07 Google Consumer~ B          26574 lv        
##  3 U.S.       2016-11-02 2016-11-06 Ipsos            A-          2195 lv        
##  4 U.S.       2016-11-04 2016-11-07 YouGov           B           3677 lv        
##  5 U.S.       2016-11-03 2016-11-06 Gravis Marketing B-         16639 rv        
##  6 U.S.       2016-11-03 2016-11-06 Fox News/Anders~ A           1295 lv        
##  7 U.S.       2016-11-02 2016-11-06 CBS News/New Yo~ A-          1426 lv        
##  8 U.S.       2016-11-03 2016-11-05 NBC News/Wall S~ A-          1282 lv        
##  9 New Mexico 2016-11-06 2016-11-06 Zia Poll         <NA>        8439 lv        
## 10 U.S.       2016-11-04 2016-11-07 IBD/TIPP         A-          1107 lv        
## # ... with 4,198 more rows, and 8 more variables: rawpoll_clinton <dbl>,
## #   rawpoll_trump <dbl>, rawpoll_johnson <dbl>, rawpoll_mcmullin <dbl>,
## #   adjpoll_clinton <dbl>, adjpoll_trump <dbl>, adjpoll_johnson <dbl>,
## #   adjpoll_mcmullin <dbl>
```
…
.right-wide[
*Example:* What was
1. the combined vote share of Trump and Clinton for each poll?
2. the difference between Trump's raw poll vote share and 538's adjusted vote share?
]

.right-wide[

```r
polls_us_election_2016
```

```
## # A tibble: 4,208 x 15
##    state      startdate  enddate    pollster         grade samplesize population
##    <fct>      <date>     <date>     <fct>            <fct>      <int> <chr>     
##  1 U.S.       2016-11-03 2016-11-06 ABC News/Washin~ A+          2220 lv        
##  2 U.S.       2016-11-01 2016-11-07 Google Consumer~ B          26574 lv        
##  3 U.S.       2016-11-02 2016-11-06 Ipsos            A-          2195 lv        
##  4 U.S.       2016-11-04 2016-11-07 YouGov           B           3677 lv        
##  5 U.S.       2016-11-03 2016-11-06 Gravis Marketing B-         16639 rv        
##  6 U.S.       2016-11-03 2016-11-06 Fox News/Anders~ A           1295 lv        
##  7 U.S.       2016-11-02 2016-11-06 CBS News/New Yo~ A-          1426 lv        
##  8 U.S.       2016-11-03 2016-11-05 NBC News/Wall S~ A-          1282 lv        
##  9 New Mexico 2016-11-06 2016-11-06 Zia Poll         <NA>        8439 lv        
## 10 U.S.       2016-11-04 2016-11-07 IBD/TIPP         A-          1107 lv        
## # ... with 4,198 more rows, and 8 more variables: rawpoll_clinton <dbl>,
## #   rawpoll_trump <dbl>, rawpoll_johnson <dbl>, rawpoll_mcmullin <dbl>,
## #   adjpoll_clinton <dbl>, adjpoll_trump <dbl>, adjpoll_johnson <dbl>,
## #   adjpoll_mcmullin <dbl>
```
…
.right-wide[

```r
polls_us_election_2016 %>%
* mutate(trump_clinton_tot = rawpoll_trump + rawpoll_clinton,
*        trump_raw_adj_diff = rawpoll_trump - adjpoll_trump)
```

```
## # A tibble: 4,208 x 17
##    state      startdate  enddate    pollster         grade samplesize population
##    <fct>      <date>     <date>     <fct>            <fct>      <int> <chr>     
##  1 U.S.       2016-11-03 2016-11-06 ABC News/Washin~ A+          2220 lv        
##  2 U.S.       2016-11-01 2016-11-07 Google Consumer~ B          26574 lv        
##  3 U.S.       2016-11-02 2016-11-06 Ipsos            A-          2195 lv        
##  4 U.S.       2016-11-04 2016-11-07 YouGov           B           3677 lv        
##  5 U.S.       2016-11-03 2016-11-06 Gravis Marketing B-         16639 rv        
##  6 U.S.       2016-11-03 2016-11-06 Fox News/Anders~ A           1295 lv        
##  7 U.S.       2016-11-02 2016-11-06 CBS News/New Yo~ A-          1426 lv        
##  8 U.S.       2016-11-03 2016-11-05 NBC News/Wall S~ A-          1282 lv        
##  9 New Mexico 2016-11-06 2016-11-06 Zia Poll         <NA>        8439 lv        
## 10 U.S.       2016-11-04 2016-11-07 IBD/TIPP         A-          1107 lv        
## # ... with 4,198 more rows, and 10 more variables: rawpoll_clinton <dbl>,
## #   rawpoll_trump <dbl>, rawpoll_johnson <dbl>, rawpoll_mcmullin <dbl>,
## #   adjpoll_clinton <dbl>, adjpoll_trump <dbl>, adjpoll_johnson <dbl>,
## #   adjpoll_mcmullin <dbl>, trump_clinton_tot <dbl>, trump_raw_adj_diff <dbl>
```
…
---

.right-wide[
*Example:* Only keep the variables `state, startdate, enddate, pollster, rawpoll_clinton, rawpoll_trump`
]

.right-wide[

```r
polls_us_election_2016
```

```
## # A tibble: 4,208 x 15
##    state      startdate  enddate    pollster         grade samplesize population
##    <fct>      <date>     <date>     <fct>            <fct>      <int> <chr>     
##  1 U.S.       2016-11-03 2016-11-06 ABC News/Washin~ A+          2220 lv        
##  2 U.S.       2016-11-01 2016-11-07 Google Consumer~ B          26574 lv        
##  3 U.S.       2016-11-02 2016-11-06 Ipsos            A-          2195 lv        
##  4 U.S.       2016-11-04 2016-11-07 YouGov           B           3677 lv        
##  5 U.S.       2016-11-03 2016-11-06 Gravis Marketing B-         16639 rv        
##  6 U.S.       2016-11-03 2016-11-06 Fox News/Anders~ A           1295 lv        
##  7 U.S.       2016-11-02 2016-11-06 CBS News/New Yo~ A-          1426 lv        
##  8 U.S.       2016-11-03 2016-11-05 NBC News/Wall S~ A-          1282 lv        
##  9 New Mexico 2016-11-06 2016-11-06 Zia Poll         <NA>        8439 lv        
## 10 U.S.       2016-11-04 2016-11-07 IBD/TIPP         A-          1107 lv        
## # ... with 4,198 more rows, and 8 more variables: rawpoll_clinton <dbl>,
## #   rawpoll_trump <dbl>, rawpoll_johnson <dbl>, rawpoll_mcmullin <dbl>,
## #   adjpoll_clinton <dbl>, adjpoll_trump <dbl>, adjpoll_johnson <dbl>,
## #   adjpoll_mcmullin <dbl>
```
…
---

.right-wide[
*Example:* Only keep the variables `state, startdate, enddate, pollster, rawpoll_clinton, rawpoll_trump`
]

.right-wide[

```r
polls_us_election_2016 %>%
* select(state,startdate,enddate,pollster,rawpoll_clinton,rawpoll_trump)
```

```
## # A tibble: 4,208 x 6
##    state      startdate  enddate    pollster       rawpoll_clinton rawpoll_trump
##    <fct>      <date>     <date>     <fct>                    <dbl>         <dbl>
##  1 U.S.       2016-11-03 2016-11-06 ABC News/Wash~            47            43  
##  2 U.S.       2016-11-01 2016-11-07 Google Consum~            38.0          35.7
##  3 U.S.       2016-11-02 2016-11-06 Ipsos                     42            39  
##  4 U.S.       2016-11-04 2016-11-07 YouGov                    45            41  
##  5 U.S.       2016-11-03 2016-11-06 Gravis Market~            47            43  
##  6 U.S.       2016-11-03 2016-11-06 Fox News/Ande~            48            44  
##  7 U.S.       2016-11-02 2016-11-06 CBS News/New ~            45            41  
##  8 U.S.       2016-11-03 2016-11-05 NBC News/Wall~            44            40  
##  9 New Mexico 2016-11-06 2016-11-06 Zia Poll                  46            44  
## 10 U.S.       2016-11-04 2016-11-07 IBD/TIPP                  41.2          42.7
## # ... with 4,198 more rows
```
…
---

.right-wide[
*Example:* What is the maximum vote share for Trump?
]

.right-wide[

```r
polls_us_election_2016
```

```
## # A tibble: 4,208 x 15
##    state      startdate  enddate    pollster         grade samplesize population
##    <fct>      <date>     <date>     <fct>            <fct>      <int> <chr>     
##  1 U.S.       2016-11-03 2016-11-06 ABC News/Washin~ A+          2220 lv        
##  2 U.S.       2016-11-01 2016-11-07 Google Consumer~ B          26574 lv        
##  3 U.S.       2016-11-02 2016-11-06 Ipsos            A-          2195 lv        
##  4 U.S.       2016-11-04 2016-11-07 YouGov           B           3677 lv        
##  5 U.S.       2016-11-03 2016-11-06 Gravis Marketing B-         16639 rv        
##  6 U.S.       2016-11-03 2016-11-06 Fox News/Anders~ A           1295 lv        
##  7 U.S.       2016-11-02 2016-11-06 CBS News/New Yo~ A-          1426 lv        
##  8 U.S.       2016-11-03 2016-11-05 NBC News/Wall S~ A-          1282 lv        
##  9 New Mexico 2016-11-06 2016-11-06 Zia Poll         <NA>        8439 lv        
## 10 U.S.       2016-11-04 2016-11-07 IBD/TIPP         A-          1107 lv        
## # ... with 4,198 more rows, and 8 more variables: rawpoll_clinton <dbl>,
## #   rawpoll_trump <dbl>, rawpoll_johnson <dbl>, rawpoll_mcmullin <dbl>,
## #   adjpoll_clinton <dbl>, adjpoll_trump <dbl>, adjpoll_johnson <dbl>,
## #   adjpoll_mcmullin <dbl>
```
…
---

.right-wide[
*Example:* What is the average vote share for Clinton by poll grade?
]

.right-wide[

```r
polls_us_election_2016
```

```
## # A tibble: 4,208 x 15
##    state      startdate  enddate    pollster         grade samplesize population
##    <fct>      <date>     <date>     <fct>            <fct>      <int> <chr>     
##  1 U.S.       2016-11-03 2016-11-06 ABC News/Washin~ A+          2220 lv        
##  2 U.S.       2016-11-01 2016-11-07 Google Consumer~ B          26574 lv        
##  3 U.S.       2016-11-02 2016-11-06 Ipsos            A-          2195 lv        
##  4 U.S.       2016-11-04 2016-11-07 YouGov           B           3677 lv        
##  5 U.S.       2016-11-03 2016-11-06 Gravis Marketing B-         16639 rv        
##  6 U.S.       2016-11-03 2016-11-06 Fox News/Anders~ A           1295 lv        
##  7 U.S.       2016-11-02 2016-11-06 CBS News/New Yo~ A-          1426 lv        
##  8 U.S.       2016-11-03 2016-11-05 NBC News/Wall S~ A-          1282 lv        
##  9 New Mexico 2016-11-06 2016-11-06 Zia Poll         <NA>        8439 lv        
## 10 U.S.       2016-11-04 2016-11-07 IBD/TIPP         A-          1107 lv        
## # ... with 4,198 more rows, and 8 more variables: rawpoll_clinton <dbl>,
## #   rawpoll_trump <dbl>, rawpoll_johnson <dbl>, rawpoll_mcmullin <dbl>,
## #   adjpoll_clinton <dbl>, adjpoll_trump <dbl>, adjpoll_johnson <dbl>,
## #   adjpoll_mcmullin <dbl>
```
…
---

.right-wide[
*Example:* What is the average vote share for Clinton by poll grade?
]

.right-wide[

```r
polls_us_election_2016 %>%
* group_by(grade)
```

```
## # A tibble: 4,208 x 15
## # Groups:   grade [11]
##    state      startdate  enddate    pollster         grade samplesize population
##    <fct>      <date>     <date>     <fct>            <fct>      <int> <chr>     
##  1 U.S.       2016-11-03 2016-11-06 ABC News/Washin~ A+          2220 lv        
##  2 U.S.       2016-11-01 2016-11-07 Google Consumer~ B          26574 lv        
##  3 U.S.       2016-11-02 2016-11-06 Ipsos            A-          2195 lv        
##  4 U.S.       2016-11-04 2016-11-07 YouGov           B           3677 lv        
##  5 U.S.       2016-11-03 2016-11-06 Gravis Marketing B-         16639 rv        
##  6 U.S.       2016-11-03 2016-11-06 Fox News/Anders~ A           1295 lv        
##  7 U.S.       2016-11-02 2016-11-06 CBS News/New Yo~ A-          1426 lv        
##  8 U.S.       2016-11-03 2016-11-05 NBC News/Wall S~ A-          1282 lv        
##  9 New Mexico 2016-11-06 2016-11-06 Zia Poll         <NA>        8439 lv        
## 10 U.S.       2016-11-04 2016-11-07 IBD/TIPP         A-          1107 lv        
## # ... with 4,198 more rows, and 8 more variables: rawpoll_clinton <dbl>,
## #   rawpoll_trump <dbl>, rawpoll_johnson <dbl>, rawpoll_mcmullin <dbl>,
## #   adjpoll_clinton <dbl>, adjpoll_trump <dbl>, adjpoll_johnson <dbl>,
## #   adjpoll_mcmullin <dbl>
```
…
---

.right-wide[
*Example:* What is the average vote share for Clinton by poll grade?
]

.right-wide[

```r
polls_us_election_2016 %>%
* group_by(grade)
```

```
## # A tibble: 4,208 x 15
## # Groups:   grade [11]
##    state      startdate  enddate    pollster         grade samplesize population
##    <fct>      <date>     <date>     <fct>            <fct>      <int> <chr>     
##  1 U.S.       2016-11-03 2016-11-06 ABC News/Washin~ A+          2220 lv        
##  2 U.S.       2016-11-01 2016-11-07 Google Consumer~ B          26574 lv        
##  3 U.S.       2016-11-02 2016-11-06 Ipsos            A-          2195 lv        
##  4 U.S.       2016-11-04 2016-11-07 YouGov           B           3677 lv        
##  5 U.S.       2016-11-03 2016-11-06 Gravis Marketing B-         16639 rv        
##  6 U.S.       2016-11-03 2016-11-06 Fox News/Anders~ A           1295 lv        
##  7 U.S.       2016-11-02 2016-11-06 CBS News/New Yo~ A-          1426 lv        
##  8 U.S.       2016-11-03 2016-11-05 NBC News/Wall S~ A-          1282 lv        
##  9 New Mexico 2016-11-06 2016-11-06 Zia Poll         <NA>        8439 lv        
## 10 U.S.       2016-11-04 2016-11-07 IBD/TIPP         A-          1107 lv        
## # ... with 4,198 more rows, and 8 more variables: rawpoll_clinton <dbl>,
## #   rawpoll_trump <dbl>, rawpoll_johnson <dbl>, rawpoll_mcmullin <dbl>,
## #   adjpoll_clinton <dbl>, adjpoll_trump <dbl>, adjpoll_johnson <dbl>,
## #   adjpoll_mcmullin <dbl>
```
…
---

Works for all `dplyr` verbs:

.pull-left[

```r
polls_us_election_2016
```
]

.pull-right[

```
## # A tibble: 4,208 x 15
##    state      startdate  enddate    pollster         grade samplesize population
##    <fct>      <date>     <date>     <fct>            <fct>      <int> <chr>     
##  1 U.S.       2016-11-03 2016-11-06 ABC News/Washin~ A+          2220 lv        
##  2 U.S.       2016-11-01 2016-11-07 Google Consumer~ B          26574 lv        
##  3 U.S.       2016-11-02 2016-11-06 Ipsos            A-          2195 lv        
##  4 U.S.       2016-11-04 2016-11-07 YouGov           B           3677 lv        
##  5 U.S.       2016-11-03 2016-11-06 Gravis Marketing B-         16639 rv        
##  6 U.S.       2016-11-03 2016-11-06 Fox News/Anders~ A           1295 lv        
##  7 U.S.       2016-11-02 2016-11-06 CBS News/New Yo~ A-          1426 lv        
##  8 U.S.       2016-11-03 2016-11-05 NBC News/Wall S~ A-          1282 lv        
##  9 New Mexico 2016-11-06 2016-11-06 Zia Poll         <NA>        8439 lv        
## 10 U.S.       2016-11-04 2016-11-07 IBD/TIPP         A-          1107 lv        
## # ... with 4,198 more rows, and 8 more variables: rawpoll_clinton <dbl>,
## #   rawpoll_trump <dbl>, rawpoll_johnson <dbl>, rawpoll_mcmullin <dbl>,
## #   adjpoll_clinton <dbl>, adjpoll_trump <dbl>, adjpoll_johnson <dbl>,
## #   adjpoll_mcmullin <dbl>
```
…
Works for all `dplyr` verbs:

.pull-left[

```r
polls_us_election_2016 %>%
* mutate(trump_clinton_diff = rawpoll_trump-rawpoll_clinton)
```
]

.pull-right[

```
## # A tibble: 4,208 x 16
##    state      startdate  enddate    pollster         grade samplesize population
##    <fct>      <date>     <date>     <fct>            <fct>      <int> <chr>     
##  1 U.S.       2016-11-03 2016-11-06 ABC News/Washin~ A+          2220 lv        
##  2 U.S.       2016-11-01 2016-11-07 Google Consumer~ B          26574 lv        
##  3 U.S.       2016-11-02 2016-11-06 Ipsos            A-          2195 lv        
##  4 U.S.       2016-11-04 2016-11-07 YouGov           B           3677 lv        
##  5 U.S.       2016-11-03 2016-11-06 Gravis Marketing B-         16639 rv        
##  6 U.S.       2016-11-03 2016-11-06 Fox News/Anders~ A           1295 lv        
##  7 U.S.       2016-11-02 2016-11-06 CBS News/New Yo~ A-          1426 lv        
##  8 U.S.       2016-11-03 2016-11-05 NBC News/Wall S~ A-          1282 lv        
##  9 New Mexico 2016-11-06 2016-11-06 Zia Poll         <NA>        8439 lv        
## 10 U.S.       2016-11-04 2016-11-07 IBD/TIPP         A-          1107 lv        
## # ... with 4,198 more rows, and 9 more variables: rawpoll_clinton <dbl>,
## #   rawpoll_trump <dbl>, rawpoll_johnson <dbl>, rawpoll_mcmullin <dbl>,
## #   adjpoll_clinton <dbl>, adjpoll_trump <dbl>, adjpoll_johnson <dbl>,
## #   adjpoll_mcmullin <dbl>, trump_clinton_diff <dbl>
```
…
