ScPoEconometrics
…
* Many similar experiments have been conducted with other groups. Arabic Names, Black names, Jewish names or other groups that can be identified from typical name choice.
]

--

.pull-right[

```r
library(moderndive)
promotions
```

```
## # A tibble: 48 x 3
##       id decision gender
##    <int> <fct>    <fct> 
##  1     1 promoted male  
##  2     2 promoted male  
##  3     3 promoted male  
##  4     4 promoted male  
##  5     5 promoted male  
##  6     6 promoted male  
##  7     7 promoted male  
##  8     8 promoted male  
##  9     9 promoted male  
## 10    10 promoted male  
## # … with 38 more rows
```
…
* Suppose we have 48 playing cards: 24 red (female) and 24 (black)

* Shuffle the cards, and lay down the cards in a row, record `f` if **red**.
]

--

.pull-right[

```r
bind_cols(promotions, promotions_shuffled)
```

```
## # A tibble: 48 x 6
##       id decision gender   id1 decision1 gender1
##    <int> <fct>    <fct>  <int> <fct>     <fct>  
##  1     1 promoted male       1 promoted  female 
##  2     2 promoted male       2 promoted  female 
##  3     3 promoted male       3 promoted  male   
##  4     4 promoted male       4 promoted  female 
##  5     5 promoted male       5 promoted  male   
##  6     6 promoted male       6 promoted  male   
##  7     7 promoted male       7 promoted  male   
##  8     8 promoted male       8 promoted  female 
##  9     9 promoted male       9 promoted  male   
## 10    10 promoted male      10 promoted  female 
## # … with 38 more rows
```
…
```
## # A tibble: 1,000 x 2
##    replicate    stat
##        <int>   <dbl>
##  1         1  0.0417
##  2         2 -0.0417
##  3         3 -0.0417
##  4         4  0.0417
##  5         5  0.125 
##  6         6 -0.208 
##  7         7  0.0417
##  8         8 -0.125 
##  9         9  0.0417
## 10        10  0.0417
## # … with 990 more rows
```
…
