ScPoEconometrics
…
.thin-right[
* This data is in `moderndive`

```r
library(moderndive)
pennies_sample
```

```
## # A tibble: 50 x 2
##       ID  year
##    <int> <dbl>
##  1     1  2002
##  2     2  1986
##  3     3  2017
##  4     4  1988
##  5     5  2008
##  6     6  1983
##  7     7  2008
##  8     8  1996
##  9     9  2004
## 10    10  2000
## # … with 40 more rows
```
…
---

# `moderndive` Resampled Data

.pull-left[
* Our friends collected 35 Re-samples.

* The data is collected in
    
    ```r
    pennies_resamples
    ```
    
    ```
    ## # A tibble: 1,750 x 3
    ##    replicate name   year
    ##        <int> <chr> <dbl>
    ##  1         1 A      1988
    ##  2         1 A      2002
    ##  3         1 A      2015
    ##  4         1 A      1998
    ##  5         1 A      1979
    ##  6         1 A      1971
    ##  7         1 A      1971
    ##  8         1 A      2015
    ##  9         1 A      1988
    ## 10         1 A      1979
    ## # … with 1,740 more rows
    ```

]

.pull-right[
* And we want to compute the average `year` from each sample:
    
    ```r
    resampled_means <- pennies_resamples %>% 
      group_by(name) %>% 
      summarize(mean_year = mean(year))
    resampled_means
    ```
    
    ```
    ## # A tibble: 35 x 2
    ##    name  mean_year
    ##    <chr>     <dbl>
    ##  1 A         1992.
    ##  2 AA        1996.
    ##  3 B         1996.
    ##  4 BB        1992.
    ##  5 C         1996.
    ##  6 CC        1996.
    ##  7 D         1997.
    ##  8 DD        1997.
    ##  9 E         1991.
    ## 10 EE        1998.
    ## # … with 25 more rows
    ```
…
--

.pull-right[
* notice we set `replace = TRUE`!
    
    ```r
    virtual_resample
    ```
    
    ```
    ## # A tibble: 50 x 3
    ## # Groups:   replicate [1]
    ##    replicate    ID  year
    ##        <int> <int> <dbl>
    ##  1         1    41  1992
    ##  2         1    23  1998
    ##  3         1    38  1999
    ##  4         1    38  1999
    ##  5         1    19  1983
    ##  6         1    50  2017
    ##  7         1    13  2015
    ##  8         1    39  2015
    ##  9         1    26  1979
    ## 10         1    17  2016
    ## # … with 40 more rows
    ```
…
---

# Resampling 35 Times

.pull-left[
First, compute 35 replicates:

```r
virtual_resamples <- pennies_sample %>% 
  rep_sample_n(size = 50, replace = TRUE, reps = 35)
virtual_resamples
```

```
## # A tibble: 1,750 x 3
## # Groups:   replicate [35]
##    replicate    ID  year
##        <int> <int> <dbl>
##  1         1    36  2015
##  2         1    18  1996
##  3         1    34  1985
##  4         1    23  1998
##  5         1    31  2013
##  6         1    47  1982
##  7         1    28  2006
##  8         1    20  1971
##  9         1     6  1983
## 10         1    44  2015
## # … with 1,740 more rows
```
…
--

.pull-right[
Then compute the mean by `replicate`!

```r
virtual_resampled_means <- virtual_resamples %>% 
  group_by(replicate) %>% 
  summarize(mean_year = mean(year))
virtual_resampled_means
```

```
## # A tibble: 35 x 2
##    replicate mean_year
##        <int>     <dbl>
##  1         1     1993.
##  2         2     1996.
##  3         3     1998.
##  4         4     1996.
##  5         5     1993.
##  6         6     1998.
##  7         7     1997.
##  8         8     1995.
##  9         9     1994.
## 10        10     1996.
## # … with 25 more rows
```
…
---

# Resampling 1000 times

```r
virtual_resampled_means <- pennies_sample %>% 
  rep_sample_n(size = 50, replace = TRUE, reps = 1000) %>% 
  group_by(replicate) %>% 
  summarize(mean_year = mean(year))
virtual_resampled_means
```

```
## # A tibble: 1,000 x 2
##    replicate mean_year
##        <int>     <dbl>
##  1         1     1995.
##  2         2     1996.
##  3         3     1996.
##  4         4     1996.
##  5         5     1995.
##  6         6     1996.
##  7         7     1997.
##  8         8     2000.
##  9         9     1996.
## 10        10     1998.
## # … with 990 more rows
```
…
# Percentile Method with `infer`

.pull-left[
* Let's start with creating a bootstrap distribution:
    
    ```r
    bootstrap_distribution <- pennies_sample %>% 
      specify(response = year) %>% 
      generate(reps = 1000, type = "bootstrap") %>% 
      calculate(stat = "mean")
    bootstrap_distribution
    ```
    
    ```
    ## # A tibble: 1,000 x 2
    ##    replicate  stat
    ##        <int> <dbl>
    ##  1         1 1996.
    ##  2         2 1995.
    ##  3         3 1996.
    ##  4         4 1997.
    ##  5         5 1993.
    ##  6         6 1996.
    ##  7         7 1996.
    ##  8         8 1994.
    ##  9         9 1995.
    ## 10        10 1994.
    ## # … with 990 more rows
    ```
…
