ScPoProgramming
…
---

.right-wide[
*Example:* Which polls had a sample size of at least 2,000 people?
]

.right-wide[

```r
*polls_us_election_2016
```

```
## # A tibble: 4,208 × 15
##    state     startdate  enddate    polls…¹ grade sampl…² popul…³ rawpo…⁴ rawpo…⁵
##    <fct>     <date>     <date>     <fct>   <fct>   <int> <chr>     <dbl>   <dbl>
##  1 U.S.      2016-11-03 2016-11-06 ABC Ne… A+       2220 lv         47      43  
##  2 U.S.      2016-11-01 2016-11-07 Google… B       26574 lv         38.0    35.7
##  3 U.S.      2016-11-02 2016-11-06 Ipsos   A-       2195 lv         42      39  
##  4 U.S.      2016-11-04 2016-11-07 YouGov  B        3677 lv         45      41  
##  5 U.S.      2016-11-03 2016-11-06 Gravis… B-      16639 rv         47      43  
##  6 U.S.      2016-11-03 2016-11-06 Fox Ne… A        1295 lv         48      44  
##  7 U.S.      2016-11-02 2016-11-06 CBS Ne… A-       1426 lv         45      41  
##  8 U.S.      2016-11-03 2016-11-05 NBC Ne… A-       1282 lv         44      40  
##  9 New Mexi… 2016-11-06 2016-11-06 Zia Po… <NA>     8439 lv         46      44  
## 10 U.S.      2016-11-04 2016-11-07 IBD/TI… A-       1107 lv         41.2    42.7
## # … with 4,198 more rows, 6 more variables: rawpoll_johnson <dbl>,
## #   rawpoll_mcmullin <dbl>, adjpoll_clinton <dbl>, adjpoll_trump <dbl>,
## #   adjpoll_johnson <dbl>, adjpoll_mcmullin <dbl>, and abbreviated variable
## #   names ¹​pollster, ²​samplesize, ³​population, ⁴​rawpoll_clinton, ⁵​rawpoll_trump
```
…
---

.right-wide[
*Example:* Which polls had a sample size of at least 2,000 people?
]

.right-wide[

```r
polls_us_election_2016 %>%
* filter(samplesize > 2000)
```

```
## # A tibble: 403 × 15
##    state     startdate  enddate    polls…¹ grade sampl…² popul…³ rawpo…⁴ rawpo…⁵
##    <fct>     <date>     <date>     <fct>   <fct>   <int> <chr>     <dbl>   <dbl>
##  1 U.S.      2016-11-03 2016-11-06 ABC Ne… A+       2220 lv         47      43  
##  2 U.S.      2016-11-01 2016-11-07 Google… B       26574 lv         38.0    35.7
##  3 U.S.      2016-11-02 2016-11-06 Ipsos   A-       2195 lv         42      39  
##  4 U.S.      2016-11-04 2016-11-07 YouGov  B        3677 lv         45      41  
##  5 U.S.      2016-11-03 2016-11-06 Gravis… B-      16639 rv         47      43  
##  6 New Mexi… 2016-11-06 2016-11-06 Zia Po… <NA>     8439 lv         46      44  
##  7 U.S.      2016-11-05 2016-11-07 The Ti… <NA>     2521 lv         45      40  
##  8 U.S.      2016-11-01 2016-11-07 USC Do… <NA>     2972 lv         43.6    46.8
##  9 Georgia   2016-11-03 2016-11-06 Gravis… B-       2002 rv         44      48  
## 10 Virginia  2016-11-01 2016-11-02 Reming… <NA>     3076 lv         46      44  
## # … with 393 more rows, 6 more variables: rawpoll_johnson <dbl>,
## #   rawpoll_mcmullin <dbl>, adjpoll_clinton <dbl>, adjpoll_trump <dbl>,
## #   adjpoll_johnson <dbl>, adjpoll_mcmullin <dbl>, and abbreviated variable
## #   names ¹​pollster, ²​samplesize, ³​population, ⁴​rawpoll_clinton, ⁵​rawpoll_trump
```
…
---

.right-wide[
*Example:* Which A graded poll with at least 2,000 people had Trump win at least 45% of the vote?
]

.right-wide[

```r
*polls_us_election_2016
```

```
## # A tibble: 4,208 × 15
##    state     startdate  enddate    polls…¹ grade sampl…² popul…³ rawpo…⁴ rawpo…⁵
##    <fct>     <date>     <date>     <fct>   <fct>   <int> <chr>     <dbl>   <dbl>
##  1 U.S.      2016-11-03 2016-11-06 ABC Ne… A+       2220 lv         47      43  
##  2 U.S.      2016-11-01 2016-11-07 Google… B       26574 lv         38.0    35.7
##  3 U.S.      2016-11-02 2016-11-06 Ipsos   A-       2195 lv         42      39  
##  4 U.S.      2016-11-04 2016-11-07 YouGov  B        3677 lv         45      41  
##  5 U.S.      2016-11-03 2016-11-06 Gravis… B-      16639 rv         47      43  
##  6 U.S.      2016-11-03 2016-11-06 Fox Ne… A        1295 lv         48      44  
##  7 U.S.      2016-11-02 2016-11-06 CBS Ne… A-       1426 lv         45      41  
##  8 U.S.      2016-11-03 2016-11-05 NBC Ne… A-       1282 lv         44      40  
##  9 New Mexi… 2016-11-06 2016-11-06 Zia Po… <NA>     8439 lv         46      44  
## 10 U.S.      2016-11-04 2016-11-07 IBD/TI… A-       1107 lv         41.2    42.7
## # … with 4,198 more rows, 6 more variables: rawpoll_johnson <dbl>,
## #   rawpoll_mcmullin <dbl>, adjpoll_clinton <dbl>, adjpoll_trump <dbl>,
## #   adjpoll_johnson <dbl>, adjpoll_mcmullin <dbl>, and abbreviated variable
## #   names ¹​pollster, ²​samplesize, ³​population, ⁴​rawpoll_clinton, ⁵​rawpoll_trump
```
…
.right-wide[
*Example:* What was
1. the combined vote share of Trump and Clinton for each poll?
2. the difference between Trump's raw poll vote share and 538's adjusted vote share?
]

.right-wide[

```r
polls_us_election_2016
```

```
## # A tibble: 4,208 × 15
##    state     startdate  enddate    polls…¹ grade sampl…² popul…³ rawpo…⁴ rawpo…⁵
##    <fct>     <date>     <date>     <fct>   <fct>   <int> <chr>     <dbl>   <dbl>
##  1 U.S.      2016-11-03 2016-11-06 ABC Ne… A+       2220 lv         47      43  
##  2 U.S.      2016-11-01 2016-11-07 Google… B       26574 lv         38.0    35.7
##  3 U.S.      2016-11-02 2016-11-06 Ipsos   A-       2195 lv         42      39  
##  4 U.S.      2016-11-04 2016-11-07 YouGov  B        3677 lv         45      41  
##  5 U.S.      2016-11-03 2016-11-06 Gravis… B-      16639 rv         47      43  
##  6 U.S.      2016-11-03 2016-11-06 Fox Ne… A        1295 lv         48      44  
##  7 U.S.      2016-11-02 2016-11-06 CBS Ne… A-       1426 lv         45      41  
##  8 U.S.      2016-11-03 2016-11-05 NBC Ne… A-       1282 lv         44      40  
##  9 New Mexi… 2016-11-06 2016-11-06 Zia Po… <NA>     8439 lv         46      44  
## 10 U.S.      2016-11-04 2016-11-07 IBD/TI… A-       1107 lv         41.2    42.7
## # … with 4,198 more rows, 6 more variables: rawpoll_johnson <dbl>,
## #   rawpoll_mcmullin <dbl>, adjpoll_clinton <dbl>, adjpoll_trump <dbl>,
## #   adjpoll_johnson <dbl>, adjpoll_mcmullin <dbl>, and abbreviated variable
## #   names ¹​pollster, ²​samplesize, ³​population, ⁴​rawpoll_clinton, ⁵​rawpoll_trump
```
…
.right-wide[

```r
polls_us_election_2016 %>%
* mutate(trump_clinton_tot = rawpoll_trump + rawpoll_clinton,
*        trump_raw_adj_diff = rawpoll_trump - adjpoll_trump)
```

```
## # A tibble: 4,208 × 17
##    state     startdate  enddate    polls…¹ grade sampl…² popul…³ rawpo…⁴ rawpo…⁵
##    <fct>     <date>     <date>     <fct>   <fct>   <int> <chr>     <dbl>   <dbl>
##  1 U.S.      2016-11-03 2016-11-06 ABC Ne… A+       2220 lv         47      43  
##  2 U.S.      2016-11-01 2016-11-07 Google… B       26574 lv         38.0    35.7
##  3 U.S.      2016-11-02 2016-11-06 Ipsos   A-       2195 lv         42      39  
##  4 U.S.      2016-11-04 2016-11-07 YouGov  B        3677 lv         45      41  
##  5 U.S.      2016-11-03 2016-11-06 Gravis… B-      16639 rv         47      43  
##  6 U.S.      2016-11-03 2016-11-06 Fox Ne… A        1295 lv         48      44  
##  7 U.S.      2016-11-02 2016-11-06 CBS Ne… A-       1426 lv         45      41  
##  8 U.S.      2016-11-03 2016-11-05 NBC Ne… A-       1282 lv         44      40  
##  9 New Mexi… 2016-11-06 2016-11-06 Zia Po… <NA>     8439 lv         46      44  
## 10 U.S.      2016-11-04 2016-11-07 IBD/TI… A-       1107 lv         41.2    42.7
## # … with 4,198 more rows, 8 more variables: rawpoll_johnson <dbl>,
## #   rawpoll_mcmullin <dbl>, adjpoll_clinton <dbl>, adjpoll_trump <dbl>,
## #   adjpoll_johnson <dbl>, adjpoll_mcmullin <dbl>, trump_clinton_tot <dbl>,
## #   trump_raw_adj_diff <dbl>, and abbreviated variable names ¹​pollster,
## #   ²​samplesize, ³​population, ⁴​rawpoll_clinton, ⁵​rawpoll_trump
```
…
---

.right-wide[
*Example:* Only keep the variables `state, startdate, enddate, pollster, rawpoll_clinton, rawpoll_trump`
]

.right-wide[

```r
polls_us_election_2016
```

```
## # A tibble: 4,208 × 15
##    state     startdate  enddate    polls…¹ grade sampl…² popul…³ rawpo…⁴ rawpo…⁵
##    <fct>     <date>     <date>     <fct>   <fct>   <int> <chr>     <dbl>   <dbl>
##  1 U.S.      2016-11-03 2016-11-06 ABC Ne… A+       2220 lv         47      43  
##  2 U.S.      2016-11-01 2016-11-07 Google… B       26574 lv         38.0    35.7
##  3 U.S.      2016-11-02 2016-11-06 Ipsos   A-       2195 lv         42      39  
##  4 U.S.      2016-11-04 2016-11-07 YouGov  B        3677 lv         45      41  
##  5 U.S.      2016-11-03 2016-11-06 Gravis… B-      16639 rv         47      43  
##  6 U.S.      2016-11-03 2016-11-06 Fox Ne… A        1295 lv         48      44  
##  7 U.S.      2016-11-02 2016-11-06 CBS Ne… A-       1426 lv         45      41  
##  8 U.S.      2016-11-03 2016-11-05 NBC Ne… A-       1282 lv         44      40  
##  9 New Mexi… 2016-11-06 2016-11-06 Zia Po… <NA>     8439 lv         46      44  
## 10 U.S.      2016-11-04 2016-11-07 IBD/TI… A-       1107 lv         41.2    42.7
## # … with 4,198 more rows, 6 more variables: rawpoll_johnson <dbl>,
## #   rawpoll_mcmullin <dbl>, adjpoll_clinton <dbl>, adjpoll_trump <dbl>,
## #   adjpoll_johnson <dbl>, adjpoll_mcmullin <dbl>, and abbreviated variable
## #   names ¹​pollster, ²​samplesize, ³​population, ⁴​rawpoll_clinton, ⁵​rawpoll_trump
```
…
---

.right-wide[
*Example:* Only keep the variables `state, startdate, enddate, pollster, rawpoll_clinton, rawpoll_trump`
]

.right-wide[

```r
polls_us_election_2016 %>%
* select(state,startdate,enddate,pollster,rawpoll_clinton,rawpoll_trump)
```

```
## # A tibble: 4,208 × 6
##    state      startdate  enddate    pollster                     rawpo…¹ rawpo…²
##    <fct>      <date>     <date>     <fct>                          <dbl>   <dbl>
##  1 U.S.       2016-11-03 2016-11-06 ABC News/Washington Post        47      43  
##  2 U.S.       2016-11-01 2016-11-07 Google Consumer Surveys         38.0    35.7
##  3 U.S.       2016-11-02 2016-11-06 Ipsos                           42      39  
##  4 U.S.       2016-11-04 2016-11-07 YouGov                          45      41  
##  5 U.S.       2016-11-03 2016-11-06 Gravis Marketing                47      43  
##  6 U.S.       2016-11-03 2016-11-06 Fox News/Anderson Robbins R…    48      44  
##  7 U.S.       2016-11-02 2016-11-06 CBS News/New York Times         45      41  
##  8 U.S.       2016-11-03 2016-11-05 NBC News/Wall Street Journal    44      40  
##  9 New Mexico 2016-11-06 2016-11-06 Zia Poll                        46      44  
## 10 U.S.       2016-11-04 2016-11-07 IBD/TIPP                        41.2    42.7
## # … with 4,198 more rows, and abbreviated variable names ¹​rawpoll_clinton,
## #   ²​rawpoll_trump
```
…
---

.right-wide[
*Example:* What is the maximum vote share for Trump?
]

.right-wide[

```r
polls_us_election_2016
```

```
## # A tibble: 4,208 × 15
##    state     startdate  enddate    polls…¹ grade sampl…² popul…³ rawpo…⁴ rawpo…⁵
##    <fct>     <date>     <date>     <fct>   <fct>   <int> <chr>     <dbl>   <dbl>
##  1 U.S.      2016-11-03 2016-11-06 ABC Ne… A+       2220 lv         47      43  
##  2 U.S.      2016-11-01 2016-11-07 Google… B       26574 lv         38.0    35.7
##  3 U.S.      2016-11-02 2016-11-06 Ipsos   A-       2195 lv         42      39  
##  4 U.S.      2016-11-04 2016-11-07 YouGov  B        3677 lv         45      41  
##  5 U.S.      2016-11-03 2016-11-06 Gravis… B-      16639 rv         47      43  
##  6 U.S.      2016-11-03 2016-11-06 Fox Ne… A        1295 lv         48      44  
##  7 U.S.      2016-11-02 2016-11-06 CBS Ne… A-       1426 lv         45      41  
##  8 U.S.      2016-11-03 2016-11-05 NBC Ne… A-       1282 lv         44      40  
##  9 New Mexi… 2016-11-06 2016-11-06 Zia Po… <NA>     8439 lv         46      44  
## 10 U.S.      2016-11-04 2016-11-07 IBD/TI… A-       1107 lv         41.2    42.7
## # … with 4,198 more rows, 6 more variables: rawpoll_johnson <dbl>,
## #   rawpoll_mcmullin <dbl>, adjpoll_clinton <dbl>, adjpoll_trump <dbl>,
## #   adjpoll_johnson <dbl>, adjpoll_mcmullin <dbl>, and abbreviated variable
## #   names ¹​pollster, ²​samplesize, ³​population, ⁴​rawpoll_clinton, ⁵​rawpoll_trump
```
…
---

.right-wide[
*Example:* What is the average vote share for Clinton by poll grade?
]

.right-wide[

```r
polls_us_election_2016
```

```
## # A tibble: 4,208 × 15
##    state     startdate  enddate    polls…¹ grade sampl…² popul…³ rawpo…⁴ rawpo…⁵
##    <fct>     <date>     <date>     <fct>   <fct>   <int> <chr>     <dbl>   <dbl>
##  1 U.S.      2016-11-03 2016-11-06 ABC Ne… A+       2220 lv         47      43  
##  2 U.S.      2016-11-01 2016-11-07 Google… B       26574 lv         38.0    35.7
##  3 U.S.      2016-11-02 2016-11-06 Ipsos   A-       2195 lv         42      39  
##  4 U.S.      2016-11-04 2016-11-07 YouGov  B        3677 lv         45      41  
##  5 U.S.      2016-11-03 2016-11-06 Gravis… B-      16639 rv         47      43  
##  6 U.S.      2016-11-03 2016-11-06 Fox Ne… A        1295 lv         48      44  
##  7 U.S.      2016-11-02 2016-11-06 CBS Ne… A-       1426 lv         45      41  
##  8 U.S.      2016-11-03 2016-11-05 NBC Ne… A-       1282 lv         44      40  
##  9 New Mexi… 2016-11-06 2016-11-06 Zia Po… <NA>     8439 lv         46      44  
## 10 U.S.      2016-11-04 2016-11-07 IBD/TI… A-       1107 lv         41.2    42.7
## # … with 4,198 more rows, 6 more variables: rawpoll_johnson <dbl>,
## #   rawpoll_mcmullin <dbl>, adjpoll_clinton <dbl>, adjpoll_trump <dbl>,
## #   adjpoll_johnson <dbl>, adjpoll_mcmullin <dbl>, and abbreviated variable
## #   names ¹​pollster, ²​samplesize, ³​population, ⁴​rawpoll_clinton, ⁵​rawpoll_trump
```
…
---

.right-wide[
*Example:* What is the average vote share for Clinton by poll grade?
]

.right-wide[

```r
polls_us_election_2016 %>%
* group_by(grade)
```

```
## # A tibble: 4,208 × 15
## # Groups:   grade [11]
##    state     startdate  enddate    polls…¹ grade sampl…² popul…³ rawpo…⁴ rawpo…⁵
##    <fct>     <date>     <date>     <fct>   <fct>   <int> <chr>     <dbl>   <dbl>
##  1 U.S.      2016-11-03 2016-11-06 ABC Ne… A+       2220 lv         47      43  
##  2 U.S.      2016-11-01 2016-11-07 Google… B       26574 lv         38.0    35.7
##  3 U.S.      2016-11-02 2016-11-06 Ipsos   A-       2195 lv         42      39  
##  4 U.S.      2016-11-04 2016-11-07 YouGov  B        3677 lv         45      41  
##  5 U.S.      2016-11-03 2016-11-06 Gravis… B-      16639 rv         47      43  
##  6 U.S.      2016-11-03 2016-11-06 Fox Ne… A        1295 lv         48      44  
##  7 U.S.      2016-11-02 2016-11-06 CBS Ne… A-       1426 lv         45      41  
##  8 U.S.      2016-11-03 2016-11-05 NBC Ne… A-       1282 lv         44      40  
##  9 New Mexi… 2016-11-06 2016-11-06 Zia Po… <NA>     8439 lv         46      44  
## 10 U.S.      2016-11-04 2016-11-07 IBD/TI… A-       1107 lv         41.2    42.7
## # … with 4,198 more rows, 6 more variables: rawpoll_johnson <dbl>,
## #   rawpoll_mcmullin <dbl>, adjpoll_clinton <dbl>, adjpoll_trump <dbl>,
## #   adjpoll_johnson <dbl>, adjpoll_mcmullin <dbl>, and abbreviated variable
## #   names ¹​pollster, ²​samplesize, ³​population, ⁴​rawpoll_clinton, ⁵​rawpoll_trump
```
…
---

.right-wide[
*Example:* What is the average vote share for Clinton by poll grade?
]

.right-wide[

```r
polls_us_election_2016 %>%
* group_by(grade)
```

```
## # A tibble: 4,208 × 15
## # Groups:   grade [11]
##    state     startdate  enddate    polls…¹ grade sampl…² popul…³ rawpo…⁴ rawpo…⁵
##    <fct>     <date>     <date>     <fct>   <fct>   <int> <chr>     <dbl>   <dbl>
##  1 U.S.      2016-11-03 2016-11-06 ABC Ne… A+       2220 lv         47      43  
##  2 U.S.      2016-11-01 2016-11-07 Google… B       26574 lv         38.0    35.7
##  3 U.S.      2016-11-02 2016-11-06 Ipsos   A-       2195 lv         42      39  
##  4 U.S.      2016-11-04 2016-11-07 YouGov  B        3677 lv         45      41  
##  5 U.S.      2016-11-03 2016-11-06 Gravis… B-      16639 rv         47      43  
##  6 U.S.      2016-11-03 2016-11-06 Fox Ne… A        1295 lv         48      44  
##  7 U.S.      2016-11-02 2016-11-06 CBS Ne… A-       1426 lv         45      41  
##  8 U.S.      2016-11-03 2016-11-05 NBC Ne… A-       1282 lv         44      40  
##  9 New Mexi… 2016-11-06 2016-11-06 Zia Po… <NA>     8439 lv         46      44  
## 10 U.S.      2016-11-04 2016-11-07 IBD/TI… A-       1107 lv         41.2    42.7
## # … with 4,198 more rows, 6 more variables: rawpoll_johnson <dbl>,
## #   rawpoll_mcmullin <dbl>, adjpoll_clinton <dbl>, adjpoll_trump <dbl>,
## #   adjpoll_johnson <dbl>, adjpoll_mcmullin <dbl>, and abbreviated variable
## #   names ¹​pollster, ²​samplesize, ³​population, ⁴​rawpoll_clinton, ⁵​rawpoll_trump
```
…
---

Works for all `dplyr` verbs:

.left-40[

```r
polls_us_election_2016
```
]

.rigiht-60[

```
## # A tibble: 4,208 × 15
##    state     startdate  enddate    polls…¹ grade sampl…² popul…³ rawpo…⁴ rawpo…⁵
##    <fct>     <date>     <date>     <fct>   <fct>   <int> <chr>     <dbl>   <dbl>
##  1 U.S.      2016-11-03 2016-11-06 ABC Ne… A+       2220 lv         47      43  
##  2 U.S.      2016-11-01 2016-11-07 Google… B       26574 lv         38.0    35.7
##  3 U.S.      2016-11-02 2016-11-06 Ipsos   A-       2195 lv         42      39  
##  4 U.S.      2016-11-04 2016-11-07 YouGov  B        3677 lv         45      41  
##  5 U.S.      2016-11-03 2016-11-06 Gravis… B-      16639 rv         47      43  
##  6 U.S.      2016-11-03 2016-11-06 Fox Ne… A        1295 lv         48      44  
##  7 U.S.      2016-11-02 2016-11-06 CBS Ne… A-       1426 lv         45      41  
##  8 U.S.      2016-11-03 2016-11-05 NBC Ne… A-       1282 lv         44      40  
##  9 New Mexi… 2016-11-06 2016-11-06 Zia Po… <NA>     8439 lv         46      44  
## 10 U.S.      2016-11-04 2016-11-07 IBD/TI… A-       1107 lv         41.2    42.7
## # … with 4,198 more rows, 6 more variables: rawpoll_johnson <dbl>,
## #   rawpoll_mcmullin <dbl>, adjpoll_clinton <dbl>, adjpoll_trump <dbl>,
## #   adjpoll_johnson <dbl>, adjpoll_mcmullin <dbl>, and abbreviated variable
## #   names ¹​pollster, ²​samplesize, ³​population, ⁴​rawpoll_clinton, ⁵​rawpoll_trump
```
…
.left-40[

```r
polls_us_election_2016 %>%
*   mutate(trump_clinton_diff =
*            rawpoll_trump -
*            rawpoll_clinton)
```
]

.right-60[

```
## # A tibble: 4,208 × 16
##    state     startdate  enddate    polls…¹ grade sampl…² popul…³ rawpo…⁴ rawpo…⁵
##    <fct>     <date>     <date>     <fct>   <fct>   <int> <chr>     <dbl>   <dbl>
##  1 U.S.      2016-11-03 2016-11-06 ABC Ne… A+       2220 lv         47      43  
##  2 U.S.      2016-11-01 2016-11-07 Google… B       26574 lv         38.0    35.7
##  3 U.S.      2016-11-02 2016-11-06 Ipsos   A-       2195 lv         42      39  
##  4 U.S.      2016-11-04 2016-11-07 YouGov  B        3677 lv         45      41  
##  5 U.S.      2016-11-03 2016-11-06 Gravis… B-      16639 rv         47      43  
##  6 U.S.      2016-11-03 2016-11-06 Fox Ne… A        1295 lv         48      44  
##  7 U.S.      2016-11-02 2016-11-06 CBS Ne… A-       1426 lv         45      41  
##  8 U.S.      2016-11-03 2016-11-05 NBC Ne… A-       1282 lv         44      40  
##  9 New Mexi… 2016-11-06 2016-11-06 Zia Po… <NA>     8439 lv         46      44  
## 10 U.S.      2016-11-04 2016-11-07 IBD/TI… A-       1107 lv         41.2    42.7
## # … with 4,198 more rows, 7 more variables: rawpoll_johnson <dbl>,
## #   rawpoll_mcmullin <dbl>, adjpoll_clinton <dbl>, adjpoll_trump <dbl>,
## #   adjpoll_johnson <dbl>, adjpoll_mcmullin <dbl>, trump_clinton_diff <dbl>,
## #   and abbreviated variable names ¹​pollster, ²​samplesize, ³​population,
## #   ⁴​rawpoll_clinton, ⁵​rawpoll_trump
```
…
