ScPoEconometrics
…
# Using The Virtual Shovel 33 Times

.pull-left[

33 samples (*replicates*) of size 50.

```r
virtual_samples <- bowl %>%
  # get 33 samples of size 50
  rep_sample_n(size = 50, reps = 33)
virtual_samples
```

```
## # A tibble: 1,650 x 3
## # Groups:   replicate [33]
##    replicate pasta_ID color 
##        <int>    <int> <fct> 
##  1         1      246 red   
##  2         1      340 red   
##  3         1      597 red   
##  4         1      352 green 
##  5         1      553 green 
##  6         1      174 green 
##  7         1      173 yellow
##  8         1      158 yellow
##  9         1      231 green 
## 10         1      415 yellow
## # … with 1,640 more rows
```
…
Compute the proportion of green pasta in each sample.

```r
virtual_prop_green <- virtual_samples %>% 
  group_by(replicate) %>% # calculate stat by sample
  summarize(
    num_green = sum(color == "green"),
    sample_n = n()) %>% 
  mutate(prop_green = num_green / sample_n)
virtual_prop_green
```

```
## # A tibble: 33 x 4
##    replicate num_green sample_n prop_green
##        <int>     <int>    <int>      <dbl>
##  1         1        21       50      0.42 
##  2         2        19       50      0.38 
##  3         3        26       50      0.52 
##  4         4        23       50      0.46 
##  5         5        22       50      0.44 
##  6         6        20       50      0.4  
##  7         7        21       50      0.42 
##  8         8        29       50      0.580
##  9         9        25       50      0.5  
## 10        10        23       50      0.46 
## # … with 23 more rows
```
…
