ScPoEconometrics
…
]

--

.right-thin[

</br>

```r
library(moderndive)
promotions
```

```
## # A tibble: 48 x 3
##       id decision gender
##    <int> <fct>    <fct> 
##  1     1 promoted male  
##  2     2 promoted male  
##  3     3 promoted male  
##  4     4 promoted male  
##  5     5 promoted male  
##  6     6 promoted male  
##  7     7 promoted male  
##  8     8 promoted male  
##  9     9 promoted male  
## 10    10 promoted male  
## # … with 38 more rows
```
…
