ScPoEconometrics
…
]

.pull-right[

```r
bootstrap_distn_slope <- wage1 %>% 
  specify(formula = lwage ~ educ) %>%
  generate(reps = 1000, type = "bootstrap") %>% 
  calculate(stat = "slope")

bootstrap_distn_slope
```

```
## # A tibble: 1,000 x 2
##    replicate   stat
##        <int>  <dbl>
##  1         1 0.0744
##  2         2 0.0887
##  3         3 0.0943
##  4         4 0.0862
##  5         5 0.0912
##  6         6 0.0870
##  7         7 0.0828
##  8         8 0.0771
##  9         9 0.0900
## 10        10 0.0817
## # … with 990 more rows
```
…
